-----BEGIN PGP SIGNATURE-----

iHUEABEIAB0WIQQGskM0bQ3+vJgbU9Mbz+uOhKQLbAUCZE4SqgAKCRAbz+uOhKQL
bPZmAP46myue6OG0Pd6aEKgwjKkZJrkS6ZZiXbtbQQ2xP59UyQEApMGqzyz/4B69
sHSUo8Ml3BQiiJhW91QyGiEmiVlxA/s=
=kWrR
-----END PGP SIGNATURE-----
