-----BEGIN PGP SIGNATURE-----

iHUEABEIAB0WIQQGskM0bQ3+vJgbU9Mbz+uOhKQLbAUCZDxB3gAKCRAbz+uOhKQL
bEqTAQCVUHEzNDPVdSPl52d9Asj/Vf7yXQm81cVgMuj/nvghNgEAinr+JRlW9bLr
qaySSWfIV/1MUiWiEyMx2WO+ilQgyB8=
=oqvq
-----END PGP SIGNATURE-----
