-----BEGIN PGP SIGNATURE-----

iHUEABEKAB0WIQQGskM0bQ3+vJgbU9Mbz+uOhKQLbAUCZYVKuAAKCRAbz+uOhKQL
bJzzAQCpoMBAOJGrCHq0cnIIp/2BNd6xE6MMe/X8XXfIgmhDFQD/TLvosDH7nw2G
QQmaH1CNsXLcHAXrbzaUPkXqj+ZZgbo=
=3Pwx
-----END PGP SIGNATURE-----
