-----BEGIN PGP SIGNATURE-----

iHUEABEKAB0WIQQGskM0bQ3+vJgbU9Mbz+uOhKQLbAUCZYVK0AAKCRAbz+uOhKQL
bAxkAP46Imo0UZH2LwQueWtIixJ+rQGo1MwmNasdQuBJA++RsgEA4DnD6xP0LCZ6
fmCS6i61aeJauE8wkUxFRhvlgUXcAZY=
=HPug
-----END PGP SIGNATURE-----
